02_add_new_places
…
master_data = read_csv("master_data.csv")

Rows: 234 Columns: 12
── Column specification ────────────────────────────────────────────────────────
Delimiter: ","
chr (8): name, type, location, creators_rec, notes, sheet_name, address, goo...
dbl (4): rating, user_ratings_total, lat, lng

ℹ Use `spec()` to retrieve the full column specification for this data.
ℹ Specify the column types or set `show_col_types = FALSE` to quiet this message.

master_data

# A tibble: 234 × 12
   name              type  location creators_rec notes sheet_name address rating
   <chr>             <chr> <chr>    <chr>        <chr> <chr>      <chr>    <dbl>
 1 Blue Bottle       Coff… San Fra… <NA>          <NA> Dea - Bay… 199 Su…    4.3
 2 Cafenated Coffee  Coff… San Fra… <NA>          <NA> Dea - Bay… 2085 V…    4.3
 3 Victory Point     Coff… San Fra… Yes          "Goo… Dea - Bay… 1797 S…    4.7
 4 My Coffee Roaste… Coff… San Fra… Yes          "Fai… Dea - Bay… 2080 M…    4.8
 5 Artis             Coff… San Fra… <NA>          <NA> Dea - Bay… 3200 B…    5  
 6 Hidden Cafe       Coff… San Fra… <NA>          <NA> Dea - Bay… 1250 A…    4.8
 7 Timeless Cafe     Coff… San Fra… <NA>          <NA> Dea - Bay… 85 Web…    4.6
 8 Free Speech Move… Coff… San Fra… <NA>          <NA> Dea - Bay… 3rd Fl…    4.3
 9 Rasa Cafe         Coff… San Fra… <NA>          <NA> Dea - Bay… 1379 4…    4.6
10 States            Coff… San Fra… <NA>          <NA> Dea - Bay… San Fr…   NA  
# ℹ 224 more rows
# ℹ 4 more variables: user_ratings_total <dbl>, google_maps_link <chr>,
#   lat <dbl>, lng <dbl>
Which places do not have Google data yet?

I would check for all columns.

missing_data = master_data %>%
   filter(
      is.na(address) |
         is.na(rating) |
         is.na(user_ratings_total) |
         is.na(google_maps_link) | is.na(lat) | is.na(lng)
   )

missing_data

# A tibble: 86 × 12
   name              type  location creators_rec notes sheet_name address rating
   <chr>             <chr> <chr>    <chr>        <chr> <chr>      <chr>    <dbl>
 1 States            Coff… San Fra… <NA>         <NA>  Dea - Bay… San Fr…     NA
 2 Raleigh           Rest… San Fra… <NA>         <NA>  Dea - Bay… <NA>        NA
 3 Ralph's           Coff… <NA>     <NA>         Inte… Dea - NYC… <NA>        NA
 4 Cafe Grumpy       Coff… <NA>     <NA>         Cute… Dea - NYC… <NA>        NA
 5 %Arabica          Coff… <NA>     <NA>         Grea… Dea - NYC… <NA>        NA
 6 Black Fox Coffee  Coff… <NA>     Yes          Fave… Dea - NYC… <NA>        NA
 7 Cafe Patoro       Coff… <NA>     Yes          Quai… Dea - NYC… <NA>        NA
 8 Coffee Project    Coff… <NA>     <NA>         Deco… Dea - NYC… <NA>        NA
 9 Cortaditos        Coff… <NA>     <NA>         Cuba… Dea - NYC… <NA>        NA
10 Joe Coffee Compa… Coff… <NA>     Yes          Coff… Dea - NYC… <NA>        NA
# ℹ 76 more rows
# ℹ 4 more variables: user_ratings_total <dbl>, google_maps_link <chr>,
#   lat <dbl>, lng <dbl>
…
  # Add these new rows to df1
  df1 = rbind(df1, new_rows)
  
  return(df1)
}

master_data %>% 
   add_new_rows(new_info) %>% 
   distinct(name)

# A tibble: 234 × 1
   name                
   <chr>               
 1 Blue Bottle         
 2 Cafenated Coffee    
 3 Victory Point       
 4 My Coffee Roastery  
 5 Artis               
 6 Hidden Cafe         
 7 Timeless Cafe       
 8 Free Speech Movement
 9 Rasa Cafe           
10 States              
# ℹ 224 more rows
…
# Call the function
master_data_updated = add_unique_id(master_data) %>%
   # bringing unique id to front
   select(unique_id, name, location, everything())

Adding missing grouping variables: `location_abbr`

master_data_updated

# A tibble: 234 × 14
# Groups:   location_abbr [6]
   unique_id name     location location_abbr type  creators_rec notes sheet_name
   <chr>     <chr>    <chr>    <chr>         <chr> <chr>        <chr> <chr>     
 1 KTN_0001  Golden … Knoxvil… KTN           Coff… Yes          A de… Harsh - K…
 2 KTN_0002  Frothy … Knoxvil… KTN           Coff… Yes          The … Harsh - K…
 3 KTN_0003  French … Knoxvil… KTN           Rest… <NA>         Whil… Harsh - K…
 4 KTN_0004  Coffee … Knoxvil… KTN           Coff… <NA>         Know… Harsh - K…
 5 KTN_0005  HoneyBe… Knoxvil… KTN           Coff… Yes          An i… Harsh - K…
 6 KTN_0006  Jacks C… Knoxvil… KTN           Coff… <NA>         An u… Harsh - K…
 7 KTN_0007  Spice a… Knoxvil… KTN           Tea … Yes          An o… Harsh - K…
 8 KTN_0008  Wild Lo… Knoxvil… KTN           Bake… <NA>         A sa… Harsh - K…
 9 KTN_0009  Mahalo … Knoxvil… KTN           Coff… Yes          Expe… Harsh - K…
10 KTN_0010  Capycab… Knoxvil… KTN           Coff… <NA>         A we… Harsh - K…
# ℹ 224 more rows
# ℹ 6 more variables: address <chr>, rating <dbl>, user_ratings_total <dbl>,
#   google_maps_link <chr>, lat <dbl>, lng <dbl>
…
